OFF
1004 2002 0
-10000.000000 -10000.000000 0.000000
10000.000000 -10000.000000 0.000000
10000.000000 10000.000000 0.000000
-10000.000000 10000.000000 0.000000
74.001014 21.290696 0.000000
63.631237 49.442697 0.000000
16.487753 54.206061 0.000000
98.024106 65.062881 0.000000
-23.468620 -77.186088 0.000000
-8.369035 0.861001 0.000000
76.559913 44.475436 0.000000
-82.968378 42.579162 0.000000
-12.789589 82.627141 0.000000
-56.971887 -49.329811 0.000000
31.173313 65.004587 0.000000
-56.272593 -24.129814 0.000000
48.999810 -69.658104 0.000000
-27.923745 88.806641 0.000000
40.672135 -43.482447 0.000000
-30.658019 -23.341787 0.000000
17.987740 -32.919127 0.000000
29.203105 -6.820047 0.000000
43.159521 -45.263261 0.000000
50.758111 -46.749276 0.000000
59.741747 -88.453425 0.000000
0.632429 -75.404747 0.000000
-23.485440 68.334842 0.000000
5.203867 -40.869462 0.000000
-27.910072 -63.351271 0.000000
96.945643 87.276983 0.000000
-49.485964 -33.522385 0.000000
54.732001 48.380256 0.000000
1.714396 -73.272583 0.000000
-67.962077 47.014034 0.000000
-73.052147 90.920627 0.000000
-81.899604 34.810221 0.000000
-52.176726 -53.721914 0.000000
-93.743485 28.224552 0.000000
85.234952 38.405859 0.000000
52.588820 -49.122834 0.000000
94.008970 -81.587125 0.000000
75.051045 30.212736 0.000000
-8.044165 58.612835 0.000000
13.624203 36.364853 0.000000
-31.610388 -58.401403 0.000000
-72.080970 -76.408604 0.000000
-5.158979 23.305047 0.000000
-57.526252 -80.930904 0.000000
-31.959468 41.541576 0.000000
-87.354149 -3.328586 0.000000
86.303127 24.158633 0.000000
85.240734 -93.860197 0.000000
-16.549397 90.977895 0.000000
-9.939539 20.553458 0.000000
11.540639 68.498516 0.000000
74.846041 -49.287528 0.000000
25.440979 53.542352 0.000000
-60.587612 18.243814 0.000000
80.774224 -16.987526 0.000000
95.182610 66.442180 0.000000
99.380577 -65.445265 0.000000
-74.188945 -4.415977 0.000000
-46.724594 16.152251 0.000000
-66.491634 82.717180 0.000000
-79.280831 -38.961619 0.000000
47.044027 -86.512989 0.000000
-85.076185 61.474574 0.000000
-0.704783 82.071936 0.000000
62.657380 -20.245075 0.000000
25.037229 9.857965 0.000000
-50.413790 -24.880886 0.000000
-37.364072 59.556830 0.000000
91.452396 -24.958742 0.000000
70.070648 90.051353 0.000000
-71.612078 14.360690 0.000000
23.668182 92.268026 0.000000
3.892994 -99.571837 0.000000
58.479393 32.124126 0.000000
33.814394 17.686284 0.000000
5.001056 38.986516 0.000000
20.883572 -80.808929 0.000000
-76.257823 -29.435962 0.000000
19.173455 48.837864 0.000000
-65.500826 -31.669062 0.000000
-78.267238 -52.424076 0.000000
-30.464083 -87.880275 0.000000
-74.177837 -68.713215 0.000000
-49.805200 28.491688 0.000000
-59.048989 3.166604 0.000000
-61.056155 -53.451300 0.000000
-2.955508 6.794739 0.000000
35.017288 -68.394223 0.000000
24.100971 22.185755 0.000000
-36.402607 -4.092908 0.000000
31.244266 -93.799682 0.000000
59.056318 70.603871 0.000000
57.341754 -0.687248 0.000000
94.131398 7.059002 0.000000
-44.637126 -8.269519 0.000000
-46.910977 83.945000 0.000000
-9.185863 57.705593 0.000000
29.517651 -79.551871 0.000000
-65.654868 77.755868 0.000000
-94.462656 -29.065204 0.000000
68.512857 76.612163 0.000000
-30.922282 13.028419 0.000000
-72.228479 -16.559851 0.000000
79.985678 -79.396369 0.000000
-58.788157 92.965615 0.000000
32.317233 -69.837102 0.000000
-42.749631 15.277195 0.000000
67.557669 47.750664 0.000000
28.153932 -93.900362 0.000000
51.320553 -31.619298 0.000000
7.077289 9.172356 0.000000
90.888274 -60.997128 0.000000
45.671821 93.825495 0.000000
-65.670785 -70.277876 0.000000
-56.004825 98.630691 0.000000
-69.402540 35.445893 0.000000
22.143781 -57.357869 0.000000
14.633512 -73.388809 0.000000
-63.915458 47.475290 0.000000
-53.680071 27.473509 0.000000
-78.563747 54.658985 0.000000
-88.737006 -4.195291 0.000000
-78.998975 -12.580138 0.000000
-0.288934 8.391333 0.000000
20.980227 -2.365565 0.000000
-93.271890 -4.070103 0.000000
-48.579246 -80.417854 0.000000
89.229655 -47.570962 0.000000
72.203088 -50.646919 0.000000
-1.605761 -85.696030 0.000000
-78.351483 -21.619725 0.000000
78.813362 56.950307 0.000000
71.043873 84.209049 0.000000
-0.412190 81.638348 0.000000
95.565021 72.575784 0.000000
61.946011 -8.445984 0.000000
-13.875240 69.543421 0.000000
-25.897199 -77.328055 0.000000
-3.695118 -97.407002 0.000000
-14.416003 -0.794274 0.000000
-43.132448 69.218266 0.000000
-36.432981 -40.393198 0.000000
29.466116 11.758113 0.000000
-0.873262 -37.680942 0.000000
-96.311603 -76.914589 0.000000
63.655555 82.164621 0.000000
-7.663918 -80.312966 0.000000
-29.765761 75.087035 0.000000
-16.112792 14.868641 0.000000
-33.261871 -12.722468 0.000000
-34.246594 1.454604 0.000000
-71.718505 90.214264 0.000000
12.137508 12.001383 0.000000
-32.254517 -21.369177 0.000000
25.232577 3.801799 0.000000
-81.275277 -16.488779 0.000000
62.421095 25.670028 0.000000
-71.305406 -42.703414 0.000000
45.888793 93.952763 0.000000
37.248397 -42.187971 0.000000
-7.958120 48.867810 0.000000
-72.953218 13.887560 0.000000
-18.613070 -67.461812 0.000000
17.678785 23.356164 0.000000
69.422030 69.713783 0.000000
-22.950310 3.210402 0.000000
64.835489 24.683225 0.000000
-41.914791 -69.292861 0.000000
-91.614340 79.894173 0.000000
32.456875 70.236075 0.000000
-56.588760 38.488376 0.000000
9.260559 -60.494277 0.000000
87.849498 -3.528762 0.000000
25.277960 11.304617 0.000000
19.235122 -76.529248 0.000000
21.703219 2.970636 0.000000
-50.884822 59.493637 0.000000
7.951987 9.987128 0.000000
-95.068936 -13.604176 0.000000
18.104935 -88.632631 0.000000
50.528276 -54.496813 0.000000
77.711463 84.432077 0.000000
-20.440817 -82.740539 0.000000
4.695165 51.453066 0.000000
-51.985604 27.078223 0.000000
97.386503 76.744223 0.000000
-74.018323 -20.394915 0.000000
-95.951010 -76.214162 0.000000
-98.457915 90.552366 0.000000
-52.771303 -73.045641 0.000000
-21.043086 -28.212714 0.000000
48.878598 13.115597 0.000000
-97.323591 -92.042378 0.000000
55.271339 27.342641 0.000000
-85.704370 -99.728854 0.000000
16.818380 -25.104398 0.000000
59.262085 70.239615 0.000000
-73.128778 2.348948 0.000000
59.108996 47.754335 0.000000
65.378571 -34.513497 0.000000
-10.235763 8.318567 0.000000
37.454545 -38.812792 0.000000
47.228229 99.992490 0.000000
16.882694 94.888926 0.000000
-13.925803 -47.970557 0.000000
95.391965 -21.319395 0.000000
78.518963 96.315479 0.000000
44.458830 -60.217577 0.000000
85.056925 -92.508557 0.000000
54.280639 -14.266431 0.000000
-21.783191 2.501452 0.000000
12.566912 -14.383763 0.000000
33.886337 -38.483191 0.000000
-18.761283 -41.010821 0.000000
-47.876680 48.932719 0.000000
78.333068 98.440719 0.000000
52.178335 24.970067 0.000000
-23.701948 -0.343567 0.000000
51.233065 -68.334240 0.000000
-85.243084 -41.818887 0.000000
-83.053514 10.647058 0.000000
2.257466 -50.595531 0.000000
10.098362 -8.858699 0.000000
42.978132 -87.919547 0.000000
-99.516760 -19.965929 0.000000
99.207652 86.277211 0.000000
46.817684 29.814112 0.000000
49.657369 -67.128673 0.000000
-59.059533 -28.542274 0.000000
29.002535 59.486377 0.000000
-9.398001 64.186835 0.000000
52.978885 -51.402077 0.000000
5.227530 60.601962 0.000000
-37.842888 -32.449722 0.000000
52.197361 37.108779 0.000000
71.746588 71.987724 0.000000
-79.834443 60.310924 0.000000
-36.428630 -89.063032 0.000000
-37.440044 8.176398 0.000000
-59.513992 -13.744169 0.000000
97.756457 90.226793 0.000000
91.788542 -38.313740 0.000000
53.542566 -12.687194 0.000000
64.709961 16.733897 0.000000
82.123804 99.836779 0.000000
87.352335 46.141672 0.000000
-86.367634 74.917328 0.000000
9.775460 9.303916 0.000000
56.085718 -28.922844 0.000000
37.000751 -5.634832 0.000000
62.619209 -91.736837 0.000000
37.131703 51.364112 0.000000
38.926971 48.518920 0.000000
-5.073124 81.670511 0.000000
-92.280697 36.607397 0.000000
77.520061 97.513187 0.000000
71.616006 -80.434711 0.000000
-95.676969 29.184258 0.000000
-72.829220 -36.357176 0.000000
87.352812 -14.002031 0.000000
64.582241 16.318035 0.000000
34.891152 8.373976 0.000000
-1.859415 63.647020 0.000000
-50.724915 -47.868025 0.000000
10.640228 21.008730 0.000000
21.974492 36.988783 0.000000
49.136436 -45.788836 0.000000
79.271090 27.497864 0.000000
74.884868 45.305610 0.000000
-64.080667 16.236281 0.000000
-53.339753 -22.397947 0.000000
-95.082581 -9.457141 0.000000
-42.029643 -35.643470 0.000000
-67.685327 8.532989 0.000000
-19.947213 -0.064659 0.000000
30.136454 67.367601 0.000000
-13.830364 -8.194584 0.000000
25.977027 39.816415 0.000000
-55.070373 -36.505592 0.000000
-93.203388 78.692782 0.000000
5.727196 25.885725 0.000000
-92.521496 -23.102289 0.000000
59.679139 -68.191925 0.000000
88.311160 24.313271 0.000000
-29.990768 -93.883992 0.000000
-22.121161 -59.454668 0.000000
18.959808 57.111883 0.000000
-90.921297 88.309550 0.000000
-13.900667 46.072173 0.000000
84.505987 -74.624655 0.000000
-89.731922 -43.306625 0.000000
25.629354 -53.045616 0.000000
48.940909 -15.053946 0.000000
70.579553 -9.868091 0.000000
-54.468778 6.965053 0.000000
-94.112435 -93.538689 0.000000
-98.268640 -22.224349 0.000000
91.215670 11.053884 0.000000
8.871377 -41.747379 0.000000
1.086187 -24.158144 0.000000
31.113422 -96.015265 0.000000
63.517380 76.146388 0.000000
99.524331 6.750858 0.000000
-86.497767 -1.894963 0.000000
76.016879 -0.843120 0.000000
47.401440 82.784855 0.000000
3.601301 -18.340498 0.000000
70.428324 50.353861 0.000000
-40.032434 44.897389 0.000000
-97.266879 81.539118 0.000000
-75.358169 -60.445812 0.000000
44.630003 54.847443 0.000000
-15.558606 -86.947414 0.000000
72.196352 60.010946 0.000000
35.820818 43.825197 0.000000
-95.095458 -44.538724 0.000000
1.879704 7.362473 0.000000
69.801652 10.043991 0.000000
-7.770222 97.920752 0.000000
-8.460087 51.782990 0.000000
-97.347935 29.863966 0.000000
-78.743188 -82.605131 0.000000
0.552642 28.122151 0.000000
26.392055 68.191803 0.000000
-35.686505 -97.241660 0.000000
-5.321586 2.883267 0.000000
41.845381 68.548751 0.000000
77.438676 -12.338442 0.000000
73.339117 63.832712 0.000000
57.905543 87.970543 0.000000
-73.833528 88.445127 0.000000
-85.473469 -4.144162 0.000000
-59.055915 5.254638 0.000000
-70.155901 12.837136 0.000000
65.379453 43.698549 0.000000
-45.523262 -66.507459 0.000000
82.074344 57.363355 0.000000
42.864120 21.490824 0.000000
-10.401189 54.549932 0.000000
-29.681975 92.986083 0.000000
-9.312785 52.205873 0.000000
94.453716 -90.563142 0.000000
-26.275867 22.079313 0.000000
-98.366326 31.293857 0.000000
25.048983 41.020679 0.000000
-80.556135 -25.931853 0.000000
-75.683239 -48.697889 0.000000
56.925762 1.352799 0.000000
20.303965 97.427976 0.000000
-21.860230 89.447296 0.000000
53.885329 -96.932901 0.000000
46.414936 -57.453874 0.000000
38.152862 20.026112 0.000000
53.883874 11.988688 0.000000
-92.398226 79.701006 0.000000
41.219580 -99.596352 0.000000
-61.665437 94.894946 0.000000
63.864994 86.258948 0.000000
-17.279857 -75.444745 0.000000
-73.423320 -73.434976 0.000000
-88.457683 46.367466 0.000000
-68.363470 -27.059734 0.000000
37.255764 -18.839401 0.000000
-31.731343 46.753073 0.000000
-33.343238 -35.393095 0.000000
-0.564790 44.881892 0.000000
73.057497 -58.160722 0.000000
-17.551845 -54.033175 0.000000
-30.328870 31.079161 0.000000
-69.655275 26.287591 0.000000
-82.584189 12.124431 0.000000
-1.166731 11.043274 0.000000
5.488336 21.647584 0.000000
57.009864 50.724244 0.000000
-28.201270 19.707680 0.000000
-67.392212 -4.229367 0.000000
99.349856 -19.526339 0.000000
-73.902538 -21.095526 0.000000
56.335831 -47.695422 0.000000
79.272425 63.660228 0.000000
-17.404461 -19.712132 0.000000
60.712016 -90.880492 0.000000
48.078239 -2.720201 0.000000
-48.949599 6.198239 0.000000
68.249393 51.483607 0.000000
-67.295754 -45.859855 0.000000
21.548522 60.451519 0.000000
-44.084257 -52.254501 0.000000
-29.844838 43.325090 0.000000
-48.748684 -24.725783 0.000000
6.671619 -62.144771 0.000000
45.343149 -57.950181 0.000000
-57.923251 -93.454680 0.000000
-43.126482 -21.843922 0.000000
81.951022 65.647733 0.000000
39.978194 -20.309466 0.000000
34.889662 15.925729 0.000000
62.145078 -63.923958 0.000000
-66.850185 53.274477 0.000000
-24.853790 -36.560512 0.000000
57.649028 49.926996 0.000000
-16.699350 -54.613408 0.000000
68.119895 18.260860 0.000000
56.688297 44.169033 0.000000
94.205976 84.204090 0.000000
-15.429443 -52.916813 0.000000
-45.205182 49.348247 0.000000
10.451484 52.192736 0.000000
92.539561 54.515612 0.000000
-35.378969 -70.260885 0.000000
73.259199 -14.678007 0.000000
18.893492 -86.383830 0.000000
20.024848 -30.605841 0.000000
-57.214105 39.300442 0.000000
98.169637 66.426837 0.000000
-82.378259 21.625876 0.000000
-99.456995 30.314314 0.000000
-71.222174 -3.111744 0.000000
-27.328598 -28.719461 0.000000
13.175154 96.239650 0.000000
-26.346201 -67.319614 0.000000
20.686543 43.347991 0.000000
-29.956669 -12.313884 0.000000
-85.647799 -39.497364 0.000000
48.705983 55.516541 0.000000
85.600102 0.793266 0.000000
-79.575524 -21.593982 0.000000
-71.203786 2.970505 0.000000
-85.902703 5.664957 0.000000
1.576006 52.181888 0.000000
-92.154958 -78.395748 0.000000
39.471042 -77.039389 0.000000
-88.918920 19.779587 0.000000
-66.030729 34.925425 0.000000
-77.868283 2.377570 0.000000
-24.397230 73.551178 0.000000
-68.317419 92.632735 0.000000
77.734578 32.097137 0.000000
-4.472816 -63.651156 0.000000
-85.033584 -69.369388 0.000000
58.624268 -63.901618 0.000000
-97.119391 32.375968 0.000000
-54.742351 -21.245509 0.000000
75.880659 15.897548 0.000000
-81.208491 41.683757 0.000000
-12.889802 -50.590095 0.000000
-16.203266 40.201592 0.000000
-18.997473 53.960371 0.000000
13.036108 -95.945787 0.000000
-79.279910 59.576511 0.000000
-84.155248 79.441118 0.000000
91.187143 56.916511 0.000000
28.639555 -78.644612 0.000000
-67.660210 83.038354 0.000000
-9.662014 -42.020017 0.000000
69.238341 -80.101709 0.000000
79.930007 22.803450 0.000000
86.307228 29.566538 0.000000
-95.389964 6.700563 0.000000
62.467229 76.269233 0.000000
86.281955 -8.279192 0.000000
81.055629 66.895640 0.000000
54.309988 71.050918 0.000000
68.193913 94.084811 0.000000
-58.063507 35.072100 0.000000
-72.675627 -54.941028 0.000000
5.231047 88.288796 0.000000
-55.561221 -13.257724 0.000000
62.726021 -68.083337 0.000000
73.633444 -97.385940 0.000000
15.018404 -23.597503 0.000000
32.902431 73.798776 0.000000
0.407553 24.862850 0.000000
34.128523 -9.697527 0.000000
18.901658 -96.648823 0.000000
72.044158 -31.592315 0.000000
72.531545 53.688002 0.000000
84.124279 -78.484443 0.000000
-95.053860 -76.042165 0.000000
53.901291 45.127130 0.000000
64.495659 -57.913336 0.000000
-31.122476 -37.740296 0.000000
-9.792107 -94.314906 0.000000
-71.572495 -77.040337 0.000000
-95.429162 -57.937750 0.000000
54.044628 -42.012107 0.000000
-78.154808 -16.827697 0.000000
-82.893260 -33.970803 0.000000
-38.486767 83.398330 0.000000
-47.885519 77.161872 0.000000
-79.082182 -23.085856 0.000000
53.647161 -86.286490 0.000000
-40.750438 96.930718 0.000000
-45.671558 80.495977 0.000000
68.788683 58.222914 0.000000
48.696005 35.734451 0.000000
97.098160 -36.993682 0.000000
-26.450574 12.527883 0.000000
-22.541207 15.170527 0.000000
-56.502703 40.844941 0.000000
36.567211 -87.803669 0.000000
81.485808 77.159631 0.000000
9.418571 -78.028724 0.000000
-92.670104 64.174092 0.000000
-34.448987 -53.077635 0.000000
-27.907723 -25.148296 0.000000
-9.567809 90.699387 0.000000
-23.035181 31.972134 0.000000
96.188819 -10.294878 0.000000
83.533633 39.029896 0.000000
74.050021 -63.546023 0.000000
62.665069 19.055820 0.000000
-91.467460 88.420165 0.000000
-10.793835 52.800775 0.000000
11.231720 48.908269 0.000000
-75.960328 -4.442102 0.000000
96.840215 32.085228 0.000000
96.453321 -96.772381 0.000000
20.878422 -25.256735 0.000000
-29.736519 58.758509 0.000000
-62.056291 -87.341364 0.000000
-10.347831 86.657751 0.000000
-44.602168 -21.572196 0.000000
99.761462 32.074869 0.000000
-27.160341 -94.802592 0.000000
-79.655135 90.339887 0.000000
-43.724626 18.619657 0.000000
25.123298 11.139643 0.000000
44.507730 -35.876811 0.000000
22.283149 6.364274 0.000000
-29.466581 10.879767 0.000000
-15.868241 -22.883463 0.000000
-40.826154 -21.689081 0.000000
67.061961 -40.986687 0.000000
-36.170828 -63.823012 0.000000
-86.781114 80.525506 0.000000
17.185140 -24.047071 0.000000
-95.422807 44.522285 0.000000
92.240715 23.760140 0.000000
-2.502847 -26.141715 0.000000
15.181351 -98.605463 0.000000
18.462145 23.698199 0.000000
-67.269462 -11.658496 0.000000
-53.372627 17.112648 0.000000
-65.095314 4.584205 0.000000
-38.759989 12.006187 0.000000
48.026967 15.382898 0.000000
-55.093920 69.236958 0.000000
93.249989 30.006480 0.000000
-62.657663 81.905878 0.000000
59.406471 50.252485 0.000000
71.467006 55.243886 0.000000
71.113300 -4.142141 0.000000
-35.452896 -5.847389 0.000000
31.179810 40.009749 0.000000
-10.190058 -91.421596 0.000000
-96.654214 -44.616544 0.000000
-4.469544 96.531391 0.000000
-37.256265 -91.374619 0.000000
-54.940617 -43.946743 0.000000
-92.697927 9.281909 0.000000
-39.812154 -25.937760 0.000000
54.858780 0.503528 0.000000
-96.910737 89.004254 0.000000
-55.631506 -81.020708 0.000000
-83.223662 -35.837054 0.000000
7.196891 99.996400 0.000000
2.781928 -14.977312 0.000000
69.958389 -79.813527 0.000000
-40.749198 34.604335 0.000000
-19.429576 26.168048 0.000000
-94.194029 -14.234239 0.000000
-36.941534 95.682371 0.000000
60.222089 47.001982 0.000000
27.851045 82.720101 0.000000
40.669131 -37.780368 0.000000
-78.073856 1.987135 0.000000
90.693271 -93.079770 0.000000
-16.810411 35.288572 0.000000
-18.253416 28.234684 0.000000
-22.368830 81.944406 0.000000
45.158195 -52.775756 0.000000
-45.850992 -96.019506 0.000000
29.306519 -53.295878 0.000000
45.116293 45.931542 0.000000
-18.136996 -83.421382 0.000000
98.767591 89.232278 0.000000
-60.486749 4.797149 0.000000
-1.844525 80.261004 0.000000
23.243010 7.651424 0.000000
16.427660 7.251263 0.000000
14.194202 -66.490984 0.000000
32.304263 -29.183513 0.000000
83.955038 -21.309054 0.000000
-36.088115 4.789102 0.000000
3.044403 78.614366 0.000000
79.128754 45.261407 0.000000
-51.832184 -18.355638 0.000000
7.437921 3.760648 0.000000
-74.719134 -24.367446 0.000000
-27.792341 66.676641 0.000000
-51.023716 -60.475379 0.000000
8.426642 74.288762 0.000000
44.596148 38.219297 0.000000
-37.979996 99.759996 0.000000
63.402653 -47.417903 0.000000
60.407066 -18.064523 0.000000
-14.302880 50.230026 0.000000
-31.187367 -5.340213 0.000000
45.377624 -60.457218 0.000000
-94.858654 -48.950255 0.000000
93.561459 -96.815433 0.000000
-92.674838 26.229918 0.000000
-15.432131 37.171972 0.000000
67.639089 -74.206030 0.000000
-91.967352 33.013952 0.000000
-10.254443 99.366271 0.000000
59.361064 -72.806597 0.000000
42.753255 98.722684 0.000000
-97.222893 -40.776765 0.000000
97.231448 -11.577266 0.000000
-53.260425 71.930015 0.000000
62.939692 -39.675987 0.000000
-44.465107 -19.628155 0.000000
16.100717 -67.579934 0.000000
-67.573443 -43.357450 0.000000
9.477866 22.333157 0.000000
37.705839 13.101614 0.000000
22.631395 62.139404 0.000000
25.971448 44.742179 0.000000
-56.603321 12.208438 0.000000
-7.220483 -56.203145 0.000000
73.804057 41.898894 0.000000
-70.891774 -72.376621 0.000000
-30.932039 -13.431561 0.000000
15.343165 -1.744950 0.000000
3.795409 -80.508816 0.000000
24.855554 -61.332765 0.000000
-85.942641 -67.935324 0.000000
30.857599 72.348428 0.000000
75.024366 -89.632734 0.000000
-58.080727 -34.365636 0.000000
71.563601 -31.687182 0.000000
49.346137 -4.097688 0.000000
28.372192 7.295966 0.000000
-38.989502 -86.335737 0.000000
30.176401 -91.257627 0.000000
-32.272869 -62.235746 0.000000
61.267984 -45.760202 0.000000
85.578191 76.157737 0.000000
-85.565089 -87.912834 0.000000
33.517766 -35.463017 0.000000
-48.440623 -8.965045 0.000000
-45.695448 -88.609471 0.000000
21.432197 -4.917741 0.000000
61.799300 41.427433 0.000000
7.196093 35.058141 0.000000
-51.630691 -26.747644 0.000000
40.279126 15.774345 0.000000
52.458656 -16.272783 0.000000
38.271487 44.309676 0.000000
-23.824388 -12.654942 0.000000
3.194022 5.258775 0.000000
-64.939672 -10.317087 0.000000
40.112615 64.103341 0.000000
-57.229894 -44.521314 0.000000
32.618177 -9.705621 0.000000
-16.435856 38.195074 0.000000
-6.836218 35.203946 0.000000
61.597168 -91.968899 0.000000
93.270326 -7.628775 0.000000
-44.781661 -99.402383 0.000000
71.823061 -8.681363 0.000000
55.690348 18.391442 0.000000
43.824148 -30.238223 0.000000
83.869886 -7.661939 0.000000
25.172603 59.474874 0.000000
84.544075 23.685026 0.000000
-69.449070 -97.780833 0.000000
-28.470868 26.763284 0.000000
-60.468191 -92.498460 0.000000
66.916597 -31.459403 0.000000
-57.932484 93.960810 0.000000
83.610415 58.431482 0.000000
26.628458 13.479435 0.000000
61.223650 -55.402541 0.000000
13.020504 57.164896 0.000000
-29.506761 90.784442 0.000000
-18.571609 -34.482634 0.000000
19.125128 93.985796 0.000000
-76.875843 -90.938541 0.000000
-28.258431 36.028230 0.000000
47.220457 81.850731 0.000000
56.617391 37.858653 0.000000
-54.535913 79.204738 0.000000
-35.300314 45.163572 0.000000
-30.436009 62.079978 0.000000
-36.923921 -7.737899 0.000000
75.683725 41.128993 0.000000
6.179941 -32.734567 0.000000
15.196466 20.342720 0.000000
68.485808 -36.956251 0.000000
-21.444929 -16.957635 0.000000
-5.032051 -61.717480 0.000000
-83.362049 -46.401823 0.000000
-61.652428 -36.485225 0.000000
41.114497 -81.024295 0.000000
97.138691 15.520346 0.000000
91.778672 49.557471 0.000000
-48.273981 71.865630 0.000000
41.470945 -27.501917 0.000000
-12.063807 -72.258580 0.000000
35.944104 11.360323 0.000000
-84.483942 97.734153 0.000000
43.805873 92.648375 0.000000
-58.919138 4.227567 0.000000
-79.356138 -30.878252 0.000000
-46.020812 75.681627 0.000000
33.462703 -62.037155 0.000000
-57.644266 -19.918573 0.000000
-20.742822 93.254042 0.000000
-70.366290 6.592679 0.000000
46.290386 54.727304 0.000000
16.555965 -7.391453 0.000000
94.797754 -27.036995 0.000000
-97.103581 8.595908 0.000000
61.480188 13.999629 0.000000
-3.959715 -40.262079 0.000000
-30.876273 -80.528542 0.000000
43.407702 89.294291 0.000000
39.151502 -68.422714 0.000000
-36.258310 16.438746 0.000000
-75.226529 -31.773531 0.000000
65.012515 4.915142 0.000000
-59.522098 -77.934766 0.000000
-20.886707 16.047156 0.000000
-10.324669 49.878514 0.000000
99.140549 -64.664620 0.000000
71.592867 50.165713 0.000000
78.846443 -26.663995 0.000000
97.159684 -14.642060 0.000000
15.318644 -13.711989 0.000000
-12.886459 74.211812 0.000000
-72.408128 8.755231 0.000000
50.916219 -7.572949 0.000000
-13.426197 -14.741719 0.000000
31.935954 18.577003 0.000000
-78.748301 13.362563 0.000000
-14.163899 22.043252 0.000000
-87.865611 -80.738521 0.000000
-71.574557 37.161779 0.000000
-13.685530 58.366966 0.000000
-81.020398 -83.929968 0.000000
-75.004175 -28.012180 0.000000
-69.333369 -73.941019 0.000000
-73.203954 -35.069305 0.000000
91.727471 -63.809252 0.000000
74.242997 50.692630 0.000000
-3.963828 -60.606414 0.000000
98.509562 94.337225 0.000000
-53.878748 3.354764 0.000000
-27.100939 -85.556251 0.000000
-51.336926 -89.518094 0.000000
20.296955 43.490744 0.000000
31.311166 -85.117663 0.000000
-25.398374 -6.903404 0.000000
-25.520557 -28.436065 0.000000
-40.821648 31.825209 0.000000
75.954330 -78.129299 0.000000
12.913287 66.113102 0.000000
87.793815 -18.164778 0.000000
46.357584 2.133191 0.000000
-81.366305 -45.706528 0.000000
-46.158093 35.594738 0.000000
58.102119 4.101157 0.000000
-37.362522 -14.765573 0.000000
83.241570 75.200391 0.000000
-70.937786 37.176514 0.000000
-53.771561 25.087106 0.000000
-78.814934 48.621094 0.000000
-60.440463 -16.371918 0.000000
-30.500358 -99.275826 0.000000
36.666489 92.247021 0.000000
55.744302 42.767251 0.000000
-41.751736 -34.564865 0.000000
20.294833 -58.034036 0.000000
78.754067 -88.652314 0.000000
15.390503 48.719954 0.000000
83.704114 64.988708 0.000000
78.508055 0.973833 0.000000
-42.543966 -5.253267 0.000000
-4.406697 89.770412 0.000000
75.307000 54.759908 0.000000
-32.796556 -65.313405 0.000000
-39.631981 90.436244 0.000000
-0.797856 50.871074 0.000000
24.616253 56.290293 0.000000
2.907169 -7.039529 0.000000
42.881858 95.042551 0.000000
-91.019101 -30.785149 0.000000
-62.368760 2.639592 0.000000
37.205803 -95.297800 0.000000
12.151730 -94.602287 0.000000
46.134794 8.358645 0.000000
-78.887244 77.750468 0.000000
-95.848388 14.748061 0.000000
86.801374 13.216639 0.000000
-52.550450 -81.591342 0.000000
-34.788454 -47.896165 0.000000
-13.482261 26.717663 0.000000
-3.946221 -5.374134 0.000000
-48.009372 89.301074 0.000000
53.241313 34.896970 0.000000
78.878272 -26.223874 0.000000
-59.404540 56.575036 0.000000
-13.031816 -14.104688 0.000000
-28.357029 -32.807630 0.000000
7.223272 6.449044 0.000000
-26.536572 -61.149415 0.000000
-40.461540 -63.794693 0.000000
-11.794835 85.486388 0.000000
-81.620522 69.832444 0.000000
60.414672 -93.346074 0.000000
30.796576 20.903766 0.000000
0.533593 68.963933 0.000000
-98.981553 -55.337849 0.000000
-11.364073 -90.792512 0.000000
-65.138927 -15.583718 0.000000
-76.491435 -79.483765 0.000000
-57.969040 35.139143 0.000000
53.902066 36.641455 0.000000
-85.749748 21.783268 0.000000
60.756409 -98.157741 0.000000
-24.388063 60.141802 0.000000
35.959649 -87.790342 0.000000
-87.100346 54.959297 0.000000
39.352071 -62.844715 0.000000
-24.258834 1.265633 0.000000
17.925930 80.504644 0.000000
92.779553 96.871722 0.000000
-56.984019 -57.045206 0.000000
-46.211571 -14.116651 0.000000
74.340284 12.994540 0.000000
-17.213064 88.245761 0.000000
16.537201 97.463799 0.000000
63.495791 -33.145654 0.000000
-45.633519 -27.371484 0.000000
-54.652286 43.630695 0.000000
79.659617 -68.996143 0.000000
-33.647293 39.483023 0.000000
-51.096120 86.234140 0.000000
-10.771728 -81.178027 0.000000
53.913248 42.934823 0.000000
-72.126997 41.440022 0.000000
-35.111672 84.100699 0.000000
-47.709543 68.014300 0.000000
24.391019 -0.336725 0.000000
-37.499094 -28.587121 0.000000
-17.340767 87.582314 0.000000
-48.666084 68.619084 0.000000
-84.649220 21.085536 0.000000
-68.000856 37.850916 0.000000
67.862546 -7.405519 0.000000
46.001446 -65.873289 0.000000
-65.488651 77.256954 0.000000
-76.394336 84.436154 0.000000
-63.527399 -5.603671 0.000000
5.149019 20.422208 0.000000
85.827994 -65.340251 0.000000
-91.061568 70.314610 0.000000
18.458641 31.184900 0.000000
-8.070755 -58.293051 0.000000
-87.318702 -94.639490 0.000000
-62.354934 65.828300 0.000000
-2.359593 -40.688932 0.000000
81.039774 -33.507389 0.000000
-99.294169 -92.812850 0.000000
29.366732 -31.335068 0.000000
-0.081009 24.867356 0.000000
89.676845 28.054786 0.000000
96.037793 -80.885135 0.000000
48.276842 74.757314 0.000000
-65.941149 12.061882 0.000000
-1.027483 90.930462 0.000000
-18.098295 21.666408 0.000000
71.363783 -94.816826 0.000000
-71.429956 -65.145123 0.000000
86.232984 73.867297 0.000000
39.578295 -63.491273 0.000000
-96.516402 33.532453 0.000000
9.288466 -19.198287 0.000000
-23.404521 7.485366 0.000000
-26.720870 -89.852514 0.000000
-55.728155 -61.263487 0.000000
-44.931430 86.309206 0.000000
18.301129 -1.722938 0.000000
-41.207641 86.404240 0.000000
-14.121330 66.343641 0.000000
51.637793 -48.988855 0.000000
69.684434 -80.938840 0.000000
26.478076 -91.873223 0.000000
20.281565 14.345229 0.000000
30.097258 -79.955840 0.000000
-30.949974 9.124088 0.000000
-95.918941 -11.003286 0.000000
12.209141 -37.940192 0.000000
76.299775 -40.243155 0.000000
-44.548738 51.382160 0.000000
-95.882856 -82.086051 0.000000
-2.625114 40.982306 0.000000
-93.362940 -91.177556 0.000000
-95.342148 -32.393962 0.000000
25.352097 -85.350063 0.000000
-90.544990 -57.077932 0.000000
-81.396003 -74.988273 0.000000
21.036863 98.572695 0.000000
-29.243904 -16.266930 0.000000
-87.848444 -54.743549 0.000000
13.214827 92.862999 0.000000
97.990799 6.723166 0.000000
-58.876148 8.186960 0.000000
95.823622 -83.409746 0.000000
35.086703 47.686982 0.000000
-7.034165 33.345163 0.000000
-58.333945 -3.346306 0.000000
60.009778 -49.352872 0.000000
54.319322 34.819722 0.000000
-53.629473 65.090406 0.000000
20.825803 70.291948 0.000000
67.144763 -99.867536 0.000000
1.712596 -63.373685 0.000000
-82.185824 -43.819934 0.000000
44.204402 97.451735 0.000000
-9.000647 -72.187352 0.000000
32.280695 -61.195773 0.000000
57.288861 -34.735113 0.000000
19.168317 -76.698345 0.000000
14.711094 -21.103680 0.000000
83.732176 -9.945667 0.000000
57.946312 68.419158 0.000000
-67.293385 -68.848842 0.000000
-39.723170 85.754108 0.000000
52.142167 -83.695108 0.000000
78.171921 72.398281 0.000000
7.312369 -65.621710 0.000000
53.546727 92.233837 0.000000
-8.143002 -59.809780 0.000000
89.435840 -59.068468 0.000000
39.574003 -64.824647 0.000000
-32.989001 -8.577454 0.000000
-58.793440 54.553807 0.000000
31.427300 58.007777 0.000000
16.799569 20.893335 0.000000
9.886026 69.252312 0.000000
40.862823 61.692619 0.000000
63.777554 -96.971013 0.000000
-21.326268 -95.895246 0.000000
-13.342452 -43.666351 0.000000
-7.588577 92.051482 0.000000
-68.689331 -88.086603 0.000000
24.874759 61.134076 0.000000
10.321164 -86.996096 0.000000
47.628939 76.933622 0.000000
-87.453273 42.858911 0.000000
29.734635 79.635203 0.000000
-17.606664 -60.868078 0.000000
40.782642 -96.156254 0.000000
54.430079 -70.567515 0.000000
53.224099 -67.320713 0.000000
-95.603578 -14.604372 0.000000
-93.815215 73.382080 0.000000
-96.575746 -57.184932 0.000000
9.860563 46.644068 0.000000
-87.295014 -38.786244 0.000000
99.395633 -57.776475 0.000000
14.369702 -72.384265 0.000000
-10.366076 -20.956218 0.000000
-78.977001 75.031149 0.000000
1.318979 -42.012280 0.000000
68.792892 3.294814 0.000000
-90.714530 -73.320010 0.000000
-41.180360 47.011244 0.000000
-63.630289 16.766286 0.000000
-31.357563 -52.370325 0.000000
-88.481487 85.506284 0.000000
-67.832473 14.960444 0.000000
9.012628 -0.586253 0.000000
-50.477171 15.791047 0.000000
98.937666 10.840094 0.000000
-61.523366 20.484328 0.000000
-23.542333 -71.009201 0.000000
-95.205949 -85.063946 0.000000
-97.921665 -11.410451 0.000000
32.358527 -9.237742 0.000000
-92.605785 -69.094440 0.000000
-74.482039 13.511074 0.000000
38.767862 12.111461 0.000000
-86.968581 68.724430 0.000000
1.717699 -49.755996 0.000000
38.013446 -9.850246 0.000000
3 7 412 527
3 399 714 296
3 148 191 829
3 76 0 933
3 585 902 270
3 187 411 236
3 632 964 327
3 122 402 33
3 17 353 343
3 407 659 577
3 265 648 253
3 348 281 633
3 722 938 109
3 668 14 955
3 272 636 10
3 412 7 455
3 217 403 987
3 746 234 828
3 266 828 234
3 258 35 967
3 183 415 965
3 36 267 13
3 239 947 104
3 480 555 388
3 298 719 764
3 437 468 417
3 166 994 362
3 732 765 141
3 144 492 721
3 885 966 330
3 472 514 401
3 655 881 216
3 403 485 987
3 277 886 337
3 270 489 532
3 535 692 543
3 513 600 702
3 21 658 745
3 626 489 652
3 163 216 587
3 39 382 23
3 585 184 902
3 271 461 441
3 628 641 789
3 830 559 855
3 587 938 585
3 17 858 584
3 35 373 754
3 641 109 938
3 20 199 703
3 267 391 145
3 8 994 141
3 527 712 520
3 52 510 620
3 627 845 601
3 282 30 645
3 200 943 168
3 281 269 558
3 731 878 147
3 506 965 415
3 110 530 62
3 63 553 108
3 124 783 402
3 584 862 353
3 438 201 747
3 57 993 986
3 117 193 897
3 125 159 335
3 161 262 64
3 11 967 35
3 479 817 68
3 249 712 340
3 24 459 621
3 849 939 626
3 24 495 826
3 2 527 1
3 272 111 636
3 271 681 461
3 367 392 451
3 411 187 518
3 164 799 323
3 801 990 666
3 193 738 568
3 289 987 822
3 605 897 193
3 89 844 13
3 451 523 367
3 158 648 593
3 314 443 86
3 504 805 227
3 151 492 144
3 777 833 87
3 569 427 64
3 753 918 984
3 646 705 479
3 542 810 711
3 345 925 40
3 889 644 254
3 116 733 162
3 360 440 108
3 152 204 53
3 583 813 582
3 322 620 510
3 795 67 887
3 293 852 772
3 741 978 760
3 290 800 390
3 425 633 82
3 835 436 864
3 393 850 526
3 846 321 793
3 760 293 884
3 377 554 498
3 138 59 418
3 321 983 793
3 884 40 925
3 159 490 126
3 277 548 886
3 152 895 204
3 372 771 683
3 334 457 155
3 63 102 553
3 491 64 720
3 350 469 389
3 16 710 946
3 452 806 76
3 440 360 717
3 364 839 541
3 475 643 173
3 726 588 428
3 321 406 264
3 366 596 399
3 181 375 114
3 77 197 160
3 232 661 15
3 70 661 393
3 410 911 218
3 517 755 611
3 527 520 542
3 597 774 58
3 802 116 936
3 606 842 599
3 436 809 564
3 431 725 201
3 470 842 922
3 73 185 210
3 47 738 524
3 1 933 0
3 160 170 77
3 341 230 356
3 268 871 156
3 158 253 648
3 582 927 617
3 167 874 630
3 94 805 838
3 65 946 710
3 563 282 669
3 61 126 546
3 56 290 82
3 187 369 976
3 30 661 645
3 190 381 106
3 171 193 130
3 106 546 126
3 186 141 765
3 753 756 918
3 637 45 758
3 434 482 148
3 547 991 782
3 699 367 985
3 379 421 546
3 274 601 446
3 669 282 709
3 614 975 917
3 630 874 284
3 204 90 375
3 435 710 16
3 585 938 840
3 146 400 750
3 550 220 341
3 474 703 199
3 9 204 143
3 227 970 65
3 435 906 710
3 149 333 463
3 14 668 173
3 301 429 97
3 220 677 197
3 597 743 72
3 176 674 97
3 387 794 598
3 656 928 471
3 576 798 691
3 625 698 868
3 100 323 42
3 42 234 100
3 109 456 906
3 904 650 916
3 808 869 454
3 453 124 402
3 575 973 285
3 443 918 86
3 168 239 104
3 73 361 136
3 739 152 888
3 110 62 387
3 519 201 580
3 15 723 232
3 772 260 790
3 40 884 293
3 622 802 936
3 529 34 717
3 120 789 641
3 178 80 456
3 154 598 93
3 735 683 771
3 742 272 761
3 5 554 577
3 452 183 806
3 112 904 478
3 22 270 532
3 213 663 610
3 535 980 384
3 177 688 905
3 500 728 245
3 132 370 55
3 206 2 570
3 330 173 668
3 469 890 89
3 363 45 637
3 192 516 717
3 496 118 815
3 11 35 448
3 35 419 373
3 302 789 295
3 32 506 948
3 394 948 175
3 25 640 32
3 859 713 863
3 754 119 781
3 468 437 993
3 123 782 188
3 124 453 839
3 448 783 11
3 129 125 307
3 729 564 809
3 129 275 125
3 159 430 490
3 53 204 375
3 749 980 819
3 532 678 579
3 179 158 533
3 125 275 575
3 49 307 125
3 424 28 797
3 657 130 766
3 879 910 245
3 55 370 951
3 879 479 910
3 971 286 972
3 715 855 937
3 316 186 896
3 126 335 159
3 103 803 285
3 249 600 513
3 465 947 332
3 136 185 73
3 333 949 309
3 236 773 957
3 470 599 842
3 7 418 59
3 408 843 185
3 213 139 246
3 331 676 414
3 584 439 746
3 26 837 901
3 424 141 994
3 130 649 171
3 241 649 562
3 76 133 142
3 127 375 90
3 557 93 701
3 453 877 240
3 604 144 700
3 565 861 157
3 508 812 391
3 688 146 750
3 69 593 648
3 221 769 278
3 371 987 289
3 159 125 575
3 241 288 85
3 309 696 333
3 149 104 136
3 528 896 288
3 150 133 25
3 71 700 144
3 353 17 584
3 927 813 46
3 502 895 152
3 706 665 920
3 154 612 841
3 634 298 991
3 221 841 612
3 63 108 440
3 63 457 102
3 284 874 660
3 639 899 594
3 276 788 30
3 665 426 920
3 128 658 860
3 21 253 158
3 349 430 285
3 190 490 134
3 737 96 866
3 41 77 170
3 720 64 736
3 314 469 84
3 206 467 219
3 824 525 52
3 579 205 18
3 216 20 295
3 617 672 450
3 390 773 290
3 438 580 201
3 74 373 165
3 32 937 25
3 208 371 409
3 688 92 905
3 43 660 874
3 383 465 332
3 200 168 305
3 534 907 895
3 557 612 93
3 4 41 170
3 357 730 677
3 413 171 649
3 538 508 823
3 893 258 541
3 240 825 66
3 162 936 116
3 643 968 932
3 122 865 417
3 218 851 777
3 225 175 302
3 1002 878 458
3 139 610 297
3 209 744 774
3 167 956 545
3 177 69 146
3 506 940 121
3 80 916 456
3 181 114 251
3 128 860 179
3 218 180 954
3 144 859 71
3 268 630 871
3 114 821 251
3 347 420 324
3 420 809 324
3 304 112 478
3 768 916 650
3 163 587 18
3 355 613 972
3 136 104 185
3 408 185 653
3 316 830 855
3 8 141 186
3 672 913 292
3 518 187 976
3 188 782 530
3 188 87 123
3 189 138 418
3 505 653 185
3 494 603 134
3 365 757 736
3 614 921 294
3 829 975 614
3 0 228 3
3 454 539 250
3 36 13 844
3 117 758 738
3 194 692 535
3 820 861 368
3 265 716 146
3 247 515 264
3 191 998 829
3 198 0 76
3 499 230 816
3 230 341 220
3 785 142 960
3 198 299 880
3 602 990 594
3 303 703 894
3 104 305 168
3 668 955 958
3 747 751 438
3 379 431 421
3 377 31 404
3 407 787 659
3 131 245 910
3 68 610 252
3 214 204 895
3 9 329 204
3 416 881 522
3 163 18 205
3 333 467 949
3 3 570 2
3 207 922 693
3 786 919 75
3 934 442 32
3 458 731 692
3 464 263 674
3 512 674 263
3 229 590 29
3 219 248 206
3 91 435 734
3 401 444 286
3 51 581 212
3 40 481 212
3 96 748 139
3 647 386 1003
3 706 920 509
3 143 204 214
3 474 894 703
3 474 199 540
3 27 1002 302
3 216 163 205
3 543 692 731
3 371 217 987
3 818 954 180
3 573 312 777
3 259 219 467
3 408 29 843
3 357 677 550
3 238 499 816
3 278 143 214
3 169 841 214
3 222 972 231
3 16 946 971
3 917 921 614
3 223 708 935
3 432 438 224
3 616 835 35
3 405 409 371
3 175 789 302
3 128 899 658
3 127 90 320
3 112 94 650
3 359 805 304
3 420 3 228
3 0 198 880
3 210 185 843
3 29 408 229
3 220 197 230
3 425 767 269
3 613 211 867
3 231 16 222
3 70 274 661
3 106 381 831
3 279 327 14
3 56 926 955
3 755 901 837
3 42 433 266
3 444 401 689
3 39 902 235
3 592 746 828
3 266 433 236
3 30 267 276
3 485 820 368
3 238 834 856
3 558 633 281
3 168 498 332
3 398 465 383
3 172 283 250
3 453 240 839
3 765 896 186
3 649 85 732
3 598 907 242
3 378 735 105
3 784 831 723
3 393 601 70
3 2 763 229
3 2 206 248
3 131 951 978
3 209 728 380
3 195 807 357
3 296 663 246
3 170 515 406
3 160 515 170
3 219 210 248
3 244 590 763
3 10 702 600
3 552 883 542
3 868 102 981
3 334 869 457
3 533 593 594
3 251 156 181
3 489 939 113
3 685 68 849
3 477 366 1003
3 253 1003 386
3 260 572 903
3 354 826 495
3 256 588 315
3 466 943 95
3 664 607 588
3 31 428 588
3 257 592 67
3 12 584 746
3 619 35 258
3 66 1001 507
3 259 73 210
3 259 210 219
3 644 260 903
3 370 484 514
3 445 261 619
3 347 541 420
3 161 629 262
3 736 759 365
3 624 512 744
3 679 942 464
3 677 730 515
3 737 866 983
3 386 775 253
3 631 662 400
3 257 746 592
3 234 42 266
3 145 276 267
3 282 563 30
3 181 156 871
3 531 177 905
3 545 874 167
3 558 827 356
3 22 585 270
3 23 489 270
3 271 41 4
3 4 447 460
3 338 636 111
3 10 600 272
3 336 924 591
3 782 123 993
3 446 601 723
3 15 661 274
3 275 908 182
3 182 575 275
3 276 145 237
3 393 661 850
3 804 548 379
3 634 924 298
3 278 214 221
3 154 93 612
3 680 233 964
3 279 14 173
3 280 9 143
3 143 278 280
3 92 827 269
3 633 926 56
3 389 669 629
3 267 30 563
3 873 250 974
3 358 172 516
3 913 672 79
3 476 882 871
3 300 285 973
3 223 64 427
3 132 484 370
3 621 971 946
3 461 552 38
3 50 810 287
3 657 766 586
3 486 960 142
3 289 822 424
3 449 409 635
3 690 773 236
3 6 82 290
3 529 717 291
3 313 358 516
3 140 901 234
3 48 695 392
3 370 872 951
3 107 790 481
3 427 977 223
3 915 977 803
3 587 295 641
3 295 587 216
3 366 399 1003
3 252 663 113
3 464 176 679
3 737 778 96
3 57 986 634
3 656 794 764
3 995 196 914
3 196 880 299
3 642 917 998
3 103 285 300
3 923 992 97
3 681 460 810
3 20 909 295
3 703 27 909
3 27 703 147
3 226 571 215
3 94 112 304
3 478 544 304
3 95 200 305
3 305 104 149
3 527 978 1
3 527 2 229
3 432 462 307
3 61 201 519
3 679 331 942
3 793 429 810
3 305 149 463
3 622 919 786
3 801 814 571
3 543 303 980
3 311 388 111
3 272 742 111
3 695 853 372
3 71 985 367
3 172 988 516
3 192 420 313
3 897 844 944
3 350 84 469
3 255 256 315
3 377 428 31
3 486 142 559
3 589 316 855
3 600 761 272
3 239 168 332
3 588 607 856
3 255 926 256
3 294 977 623
3 228 623 300
3 179 594 899
3 114 375 320
3 247 264 406
3 737 730 778
3 207 693 352
3 322 561 570
3 344 740 323
3 369 187 799
3 224 564 432
3 347 324 445
3 876 299 198
3 487 832 963
3 376 284 476
3 284 660 326
3 690 290 773
3 173 643 279
3 241 562 288
3 675 198 76
3 329 666 90
3 90 204 329
3 668 958 330
3 309 733 696
3 556 676 308
3 68 414 297
3 135 383 317
3 340 383 135
3 149 136 361
3 333 361 467
3 334 155 34
3 34 529 334
3 335 307 49
3 49 125 335
3 591 924 548
3 88 764 719
3 273 986 989
3 74 165 337
3 111 5 338
3 41 636 659
3 339 193 171
3 538 823 171
3 332 317 383
3 135 600 340
3 230 558 356
3 775 807 265
3 611 740 517
3 342 323 100
3 496 576 608
3 898 497 900
3 344 323 342
3 342 755 517
3 212 581 40
3 473 889 933
3 549 735 110
3 501 502 378
3 129 307 462
3 261 445 324
3 791 767 82
3 348 269 281
3 494 349 603
3 159 285 430
3 350 161 64
3 776 935 708
3 265 253 775
3 139 866 96
3 570 848 919
3 67 137 470
3 52 724 353
3 439 584 151
3 254 959 889
3 673 826 254
3 231 972 613
3 184 235 902
3 750 78 827
3 662 807 550
3 357 807 566
3 357 778 730
3 358 313 283
3 358 283 172
3 212 790 51
3 354 65 970
3 155 457 440
3 108 686 360
3 73 467 361
3 361 333 149
3 8 186 362
3 715 937 950
3 694 963 325
3 487 758 45
3 11 783 364
3 420 541 313
3 81 736 757
3 365 83 232
3 727 745 658
3 678 714 579
3 911 985 71
3 511 671 695
3 368 237 145
3 812 987 485
3 79 976 369
3 433 799 187
3 514 872 370
3 401 514 484
3 208 217 371
3 166 969 289
3 574 583 511
3 573 853 312
3 119 754 373
3 74 989 373
3 224 438 751
3 373 419 165
3 127 320 375
3 375 46 53
3 376 871 630
3 326 476 284
3 202 404 31
3 388 498 5
3 530 110 735
3 105 501 378
3 804 379 870
3 431 379 548
3 72 245 728
3 60 1 978
3 365 831 381
3 190 134 381
3 39 235 382
3 132 55 537
3 455 792 687
3 653 891 138
3 819 980 571
3 19 509 920
3 836 959 826
3 385 254 24
3 748 647 1003
3 351 566 96
3 93 598 794
3 242 549 387
3 5 111 388
3 311 480 388
3 161 350 389
3 389 89 13
3 327 932 632
3 680 390 800
3 391 267 36
3 36 605 391
3 292 451 392
3 392 367 48
3 536 565 157
3 536 157 779
3 948 506 979
3 394 175 225
3 211 613 395
3 355 184 585
3 487 524 738
3 586 396 675
3 788 850 30
3 153 779 157
3 340 687 383
3 792 891 465
3 296 714 663
3 296 1003 399
3 400 356 78
3 78 750 400
3 444 689 184
3 286 621 472
3 851 218 954
3 808 981 102
3 217 692 403
3 19 861 422
3 202 577 554
3 5 498 554
3 371 289 405
3 362 715 166
3 321 846 406
3 4 170 406
3 407 202 31
3 31 483 407
3 189 229 408
3 244 843 29
3 405 969 875
3 449 635 1002
3 180 218 911
3 312 985 218
3 518 791 411
3 6 690 411
3 59 455 7
3 249 38 520
3 141 424 413
3 413 797 538
3 646 479 68
3 414 58 331
3 183 478 904
3 940 506 80
3 477 670 366
3 416 199 20
3 33 865 122
3 777 851 174
3 418 7 527
3 229 189 418
3 751 999 419
3 35 619 616
3 729 996 129
3 420 192 3
3 421 201 61
3 61 546 421
3 194 770 403
3 384 706 194
3 352 848 207
3 848 570 423
3 166 289 424
3 651 797 28
3 425 269 348
3 348 633 425
3 706 749 665
3 612 426 769
3 569 491 977
3 427 569 977
3 377 498 943
3 943 466 428
3 429 793 679
3 176 97 429
3 349 494 430
3 134 490 430
3 165 747 337
3 201 421 431
3 725 747 201
3 261 324 616
3 187 236 433
3 323 799 42
3 299 914 196
3 912 995 753
3 16 734 435
3 91 109 435
3 462 432 564
3 436 564 374
3 119 373 437
3 87 833 123
3 307 580 432
3 335 580 307
3 151 604 439
3 26 140 439
3 34 155 440
3 118 717 360
3 636 702 10
3 441 41 271
3 707 442 762
3 707 950 442
3 84 921 314
3 191 148 482
3 484 689 401
3 184 355 972
3 37 619 261
3 258 967 541
3 446 15 274
3 656 471 845
3 447 810 460
3 4 406 447
3 437 865 119
3 124 839 783
3 449 208 409
3 405 875 409
3 752 813 574
3 292 392 450
3 100 755 342
3 71 367 523
3 452 478 183
3 806 183 965
3 402 877 453
3 66 839 240
3 172 250 539
3 102 457 808
3 398 383 792
3 455 687 712
3 101 906 456
3 456 109 178
3 63 440 457
3 529 454 869
3 961 217 208
3 208 449 458
3 254 903 24
3 572 618 459
3 460 681 271
3 460 271 4
3 38 441 461
3 461 50 287
3 275 129 996
3 462 729 129
3 463 333 696
3 463 95 305
3 263 774 744
3 429 679 176
3 780 465 891
3 780 505 947
3 330 428 466
3 95 463 466
3 206 949 467
3 467 73 259
3 468 833 417
3 373 993 437
3 314 890 469
3 89 389 469
3 561 887 570
3 470 887 67
3 870 243 928
3 243 784 471
3 472 401 286
3 621 946 24
3 521 615 933
3 615 473 933
3 522 540 199
3 215 571 894
3 327 279 643
3 173 330 475
3 882 326 46
3 375 871 46
3 670 477 997
3 522 366 670
3 76 544 452
3 359 304 544
3 263 58 774
3 743 817 479
3 555 796 317
3 498 388 555
3 481 40 293
3 481 293 107
3 434 753 984
3 708 294 921
3 238 856 607
3 834 697 856
3 132 609 484
3 235 184 689
3 422 861 820
3 485 368 145
3 528 288 785
3 133 559 142
3 45 832 487
3 654 876 694
3 623 829 560
3 984 998 482
3 113 532 489
3 489 23 382
3 490 190 106
3 106 126 490
3 262 759 64
3 349 285 803
3 151 584 858
3 343 576 691
3 625 863 713
3 497 721 492
3 134 430 494
3 81 757 349
3 65 354 495
3 618 621 459
3 686 815 118
3 724 52 620
3 492 900 497
3 497 99 493
3 317 332 498
3 498 168 943
3 318 558 607
3 197 816 230
3 245 131 500
3 500 131 978
3 346 378 502
3 841 895 907
3 169 214 895
3 739 888 346
3 503 122 417
3 417 174 503
3 970 227 805
3 227 710 504
3 189 408 653
3 185 104 505
3 415 80 506
3 121 979 506
3 364 783 839
3 873 507 1001
3 391 823 508
3 44 822 987
3 509 19 422
3 422 820 770
3 525 824 257
3 67 795 257
3 671 450 695
3 372 683 511
3 624 380 306
3 923 97 674
3 513 441 38
3 38 249 513
3 772 852 618
3 115 951 872
3 247 406 515
3 197 677 160
3 539 454 988
3 567 192 313
3 344 517 740
3 517 344 342
3 425 82 767
3 6 411 791
3 519 335 126
3 519 126 61
3 287 542 883
3 249 520 712
3 1 60 521
3 345 40 581
3 522 199 416
3 20 216 881
3 451 755 837
3 151 144 604
3 832 325 963
3 396 766 524
3 257 795 525
3 510 52 525
3 471 723 601
3 526 601 393
3 229 418 527
3 306 978 527
3 830 316 960
3 328 785 288
3 440 717 34
3 516 291 717
3 573 777 771
3 87 188 530
3 531 905 593
3 531 69 177
3 18 22 532
3 596 655 714
3 594 593 905
3 251 594 156
3 534 501 105
3 242 907 105
3 303 310 980
3 535 384 194
3 701 98 779
3 19 157 861
3 382 652 489
3 929 689 609
3 44 508 538
3 538 171 413
3 529 988 454
3 539 988 172
3 745 941 522
3 540 522 941
3 507 313 541
3 445 893 347
3 287 810 542
3 97 992 301
3 147 703 543
3 571 980 310
3 478 452 544
3 544 76 359
3 905 92 956
3 269 874 92
3 365 723 831
3 471 928 243
3 62 991 387
3 62 530 782
3 886 548 924
3 277 725 548
3 110 387 549
3 549 242 105
3 356 400 662
3 195 357 550
3 698 553 868
3 868 981 877
3 552 542 520
3 520 38 552
3 815 854 99
3 698 854 553
3 554 377 404
3 404 202 554
3 480 796 555
3 555 317 498
3 866 139 297
3 331 308 676
3 93 794 701
3 612 953 426
3 230 607 558
3 318 926 558
3 133 150 559
3 316 896 960
3 560 829 614
3 319 294 623
3 510 962 322
3 470 922 570
3 649 657 562
3 328 288 562
3 645 709 282
3 563 13 267
3 224 374 564
3 616 809 436
3 565 536 397
3 397 526 850
3 386 647 566
3 351 778 566
3 567 313 516
3 567 516 192
3 568 811 193
3 47 524 568
3 569 64 491
3 103 915 803
3 3 717 608
3 343 724 608
3 310 894 571
3 9 814 329
3 459 903 572
3 107 293 772
3 218 777 312
3 530 771 87
3 511 683 574
3 502 739 346
3 228 300 973
3 575 285 159
3 576 343 608
3 900 945 798
3 338 5 577
3 577 202 407
3 733 968 696
3 842 693 922
3 579 18 532
3 655 579 714
3 438 432 580
3 580 335 519
3 51 615 581
3 581 615 345
3 672 927 326
3 582 671 511
3 752 53 813
3 582 511 583
3 140 746 439
3 52 353 847
3 22 18 585
3 585 395 355
3 328 562 586
3 682 675 396
3 585 18 587
3 120 641 295
3 483 31 588
3 256 926 664
3 589 362 186
3 589 186 316
3 590 229 763
3 244 29 590
3 548 804 591
3 88 719 591
3 828 236 957
3 137 67 592
3 533 158 593
3 593 69 531
3 251 602 594
3 594 179 533
3 628 979 178
3 120 295 789
3 205 579 655
3 596 366 522
3 414 68 817
3 743 879 72
3 534 105 907
3 598 242 387
3 599 470 137
3 137 592 599
3 249 340 600
3 796 761 135
3 274 70 601
3 526 627 601
3 666 821 320
3 329 814 666
3 603 365 381
3 381 134 603
3 604 700 837
3 26 439 604
3 605 193 339
3 339 823 605
3 266 236 828
3 327 643 932
3 607 230 499
3 499 238 607
3 118 496 608
3 608 570 3
3 609 132 537
3 626 652 537
3 68 297 610
3 610 139 213
3 611 451 292
3 164 740 292
3 153 426 953
3 665 769 426
3 355 395 613
3 840 892 211
3 614 294 319
3 319 560 614
3 521 345 615
3 615 51 473
3 419 35 835
3 616 37 261
3 292 450 672
3 392 695 450
3 260 772 572
3 618 514 472
3 258 893 619
3 37 616 619
3 620 322 570
3 620 570 608
3 618 472 621
3 444 972 286
3 578 968 786
3 206 919 622
3 560 319 623
3 228 829 623
3 624 306 512
3 263 744 512
3 863 931 859
3 493 99 698
3 537 705 626
3 203 849 626
3 627 526 397
3 397 536 627
3 595 979 628
3 628 178 109
3 629 709 262
3 629 161 389
3 284 376 630
3 630 268 167
3 341 356 662
3 400 146 716
3 773 632 932
3 680 964 390
3 255 955 926
3 56 82 633
3 387 991 298
3 634 547 57
3 442 934 762
3 225 1002 635
3 338 659 636
3 441 702 41
3 890 86 944
3 637 86 363
3 638 426 153
3 157 920 153
3 602 666 990
3 226 727 639
3 506 32 640
3 640 25 133
3 641 628 109
3 91 722 109
3 191 482 998
3 443 314 642
3 475 968 643
3 932 968 842
3 51 790 473
3 107 772 790
3 645 232 83
3 629 669 709
3 252 849 68
3 55 910 537
3 96 566 748
3 647 748 566
3 648 265 146
3 146 69 648
3 586 562 657
3 241 85 649
3 768 838 710
3 415 183 916
3 28 822 651
3 651 44 538
3 382 929 652
3 609 537 652
3 398 792 465
3 653 138 189
3 682 694 198
3 434 912 753
3 416 20 881
3 655 216 205
3 601 845 471
3 98 794 656
3 657 649 130
3 811 766 130
3 21 860 658
3 727 658 899
3 77 41 659
3 338 577 659
3 660 43 79
3 79 326 660
3 232 645 661
3 30 850 661
3 631 1000 662
3 662 550 341
3 252 610 663
3 213 246 663
3 588 256 664
3 664 318 607
3 278 769 280
3 638 920 426
3 114 320 821
3 320 90 666
3 667 379 546
3 546 831 667
3 233 955 14
3 428 330 958
3 669 389 13
3 669 13 563
3 253 997 477
3 21 745 670
3 671 582 617
3 671 617 450
3 326 79 672
3 164 292 913
3 673 254 385
3 385 24 826
3 176 464 674
3 674 512 306
3 76 142 785
3 328 586 675
3 556 866 676
3 297 414 676
3 515 160 677
3 220 550 677
3 678 532 113
3 113 663 678
3 679 308 331
3 58 942 331
3 680 800 233
3 14 964 233
3 681 810 50
3 50 461 681
3 524 963 684
3 682 198 675
3 683 378 346
3 346 574 683
3 684 682 396
3 684 396 524
3 203 705 685
3 685 646 68
3 118 360 686
3 698 99 854
3 687 792 383
3 340 712 687
3 545 956 92
3 688 177 146
3 484 609 689
3 689 929 235
3 236 411 690
3 690 6 290
3 691 798 858
3 691 17 343
3 194 403 692
3 217 961 692
3 693 842 75
3 75 352 693
3 682 684 963
3 325 756 694
3 573 372 853
3 695 372 511
3 885 330 466
3 696 966 463
3 816 930 834
3 697 77 659
3 102 868 553
3 698 625 493
3 312 853 699
3 699 48 367
3 700 71 523
3 523 837 700
3 98 845 779
3 153 953 701
3 636 41 702
3 702 441 513
3 303 543 703
3 302 909 27
3 704 167 268
3 704 268 156
3 646 685 705
3 203 626 705
3 509 194 706
3 384 749 706
3 635 875 762
3 950 875 969
3 350 776 84
3 708 223 294
3 709 645 83
3 83 262 709
3 768 710 906
3 710 227 65
3 992 306 527
3 711 527 542
3 712 527 412
3 412 455 712
3 144 721 713
3 713 493 625
3 678 663 714
3 714 399 596
3 362 855 715
3 25 937 150
3 807 1000 265
3 716 631 400
3 118 608 717
3 717 3 192
3 475 696 968
3 718 733 116
3 719 298 336
3 336 591 719
3 720 81 349
3 720 349 491
3 721 497 493
3 493 713 721
3 734 952 91
3 395 585 840
3 365 232 723
3 15 446 723
3 620 608 724
3 343 353 724
3 431 548 725
3 337 747 277
3 428 958 726
3 726 315 588
3 215 745 226
3 522 670 745
3 500 380 728
3 728 209 72
3 462 564 729
3 729 420 228
3 730 321 264
3 264 515 730
3 878 982 147
3 147 543 731
3 732 141 413
3 732 413 649
3 309 949 733
3 75 578 786
3 231 867 16
3 91 952 722
3 549 105 735
3 378 683 735
3 83 365 759
3 736 81 720
3 308 983 556
3 321 730 737
3 47 568 738
3 738 193 117
3 739 502 152
3 752 888 152
3 611 292 740
3 164 323 740
3 115 760 978
3 60 978 741
3 742 480 311
3 311 111 742
3 58 817 597
3 705 910 479
3 744 209 380
3 744 380 624
3 727 226 745
3 474 540 941
3 140 234 746
3 746 257 12
3 725 277 747
3 999 751 747
3 748 296 246
3 246 139 748
3 814 819 571
3 280 665 749
3 750 827 688
3 356 827 78
3 751 419 374
3 374 224 751
3 752 152 53
3 46 813 53
3 654 694 756
3 832 918 325
3 783 448 857
3 448 35 754
3 451 611 755
3 755 100 234
3 325 918 756
3 756 753 654
3 757 365 603
3 603 349 757
3 487 738 758
3 117 944 758
3 736 64 759
3 759 262 83
3 60 741 760
3 852 872 514
3 600 135 761
3 761 480 742
3 762 934 225
3 225 635 762
3 843 2 248
3 763 843 244
3 387 298 764
3 88 804 928
3 765 732 85
3 85 288 896
3 568 524 766
3 396 586 766
3 791 976 767
3 43 269 767
3 101 456 916
3 650 94 838
3 665 280 769
3 769 221 612
3 770 194 509
3 770 509 422
3 530 735 771
3 771 372 573
3 618 572 772
3 644 790 260
3 390 632 773
3 54 957 773
3 774 597 72
3 72 209 774
3 386 566 775
3 716 265 1000
3 708 84 776
3 776 350 64
3 468 123 833
3 87 771 777
3 357 566 778
3 351 96 778
3 627 536 779
3 779 153 701
3 780 653 505
3 505 104 947
3 857 781 865
3 781 119 865
3 123 468 993
3 782 57 547
3 754 857 448
3 33 402 783
3 723 471 784
3 667 831 243
3 785 328 675
3 785 675 76
3 786 733 718
3 802 622 786
3 697 659 787
3 787 407 483
3 788 276 237
3 237 861 788
3 789 175 595
3 595 628 789
3 644 473 790
3 212 481 790
3 82 6 791
3 518 976 791
3 792 455 59
3 653 780 891
3 308 679 793
3 301 810 429
3 387 764 794
3 98 701 794
3 561 322 962
3 510 525 795
3 135 317 796
3 796 480 761
3 651 538 797
3 797 413 424
3 798 576 496
3 496 815 798
3 433 42 799
3 799 164 369
3 800 290 56
3 56 233 800
3 801 571 226
3 226 990 801
3 802 786 718
3 718 116 802
3 803 977 491
3 491 349 803
3 667 870 379
3 88 591 804
3 504 838 805
3 94 304 805
3 133 76 965
3 806 965 76
3 775 566 807
3 195 550 807
3 250 981 454
3 240 877 825
3 616 324 809
3 809 420 729
3 447 846 810
3 301 711 810
3 130 193 811
3 811 568 766
3 812 485 145
3 145 391 812
3 813 927 582
3 583 574 813
3 801 666 814
3 814 9 280
3 108 854 686
3 898 798 815
3 77 930 197
3 697 834 930
3 743 597 817
3 817 58 414
3 122 954 402
3 877 818 931
3 819 814 280
3 819 280 749
3 820 485 403
3 403 770 820
3 821 666 602
3 602 251 821
3 44 651 822
3 28 424 822
3 391 605 823
3 339 171 823
3 52 847 824
3 12 257 824
3 825 981 250
3 873 1001 250
3 673 385 826
3 354 836 826
3 558 269 827
3 92 688 827
3 828 606 599
3 599 592 828
3 829 880 148
3 0 880 228
3 830 486 559
3 150 855 559
3 784 243 831
3 831 546 106
3 832 45 363
3 363 86 918
3 833 777 174
3 174 417 833
3 787 856 697
3 834 238 816
3 835 616 436
3 374 864 436
3 836 354 359
3 359 933 836
3 26 604 837
3 837 523 451
3 504 710 838
3 838 768 650
3 839 66 507
3 507 541 839
3 867 211 892
3 211 395 840
3 221 214 841
3 169 895 841
3 54 932 606
3 578 75 842
3 248 210 843
3 843 763 2
3 605 36 844
3 89 890 844
3 627 779 845
3 845 98 656
3 793 810 846
3 447 406 846
3 862 584 12
3 847 862 824
3 423 207 848
3 352 919 848
3 489 626 939
3 849 203 685
3 850 788 565
3 565 397 850
3 851 122 503
3 503 174 851
3 514 618 852
3 760 872 293
3 853 695 48
3 48 699 853
3 815 686 854
3 108 553 854
3 150 937 855
3 855 362 589
3 856 787 483
3 483 588 856
3 754 781 857
3 857 33 783
3 17 691 858
3 858 492 151
3 180 71 859
3 859 144 713
3 860 21 158
3 158 179 860
3 565 788 861
3 237 368 861
3 12 824 862
3 847 353 862
3 863 625 551
3 551 931 863
3 864 374 419
3 864 419 835
3 437 417 865
3 865 33 857
3 297 676 866
3 556 983 866
3 734 16 867
3 867 231 613
3 868 877 551
3 551 625 868
3 808 457 869
3 869 334 529
3 667 243 870
3 870 928 804
3 376 476 871
3 871 375 181
3 852 293 872
3 872 760 115
3 283 974 250
3 313 974 283
3 545 92 874
3 874 269 43
3 875 950 762
3 635 409 875
3 198 694 876
3 654 914 876
3 877 402 818
3 180 931 818
3 731 458 878
3 982 1002 27
3 245 72 879
3 879 743 479
3 196 995 880
3 829 228 880
3 881 655 596
3 596 522 881
3 46 871 882
3 882 476 326
3 883 552 461
3 883 461 287
3 884 521 60
3 60 760 884
3 463 966 466
3 475 330 966
3 886 634 273
3 273 989 886
3 470 570 887
3 887 561 795
3 888 752 574
3 574 346 888
3 933 889 959
3 889 473 644
3 890 314 86
3 637 944 86
3 891 792 59
3 59 138 891
3 722 952 840
3 952 734 867
3 541 347 893
3 445 619 893
3 310 303 894
3 474 941 894
3 895 502 501
3 501 534 895
3 765 85 896
3 528 960 896
3 897 605 844
3 890 944 844
3 898 815 99
3 99 497 898
3 639 727 899
3 899 128 179
3 858 798 945
3 900 798 898
3 755 234 901
3 901 140 26
3 902 39 23
3 23 270 902
3 459 24 903
3 903 254 644
3 904 916 183
3 904 112 650
3 905 704 156
3 156 594 905
3 435 109 906
3 101 916 906
3 907 598 154
3 154 841 907
3 996 729 228
3 973 182 996
3 302 295 909
3 909 20 703
3 705 537 910
3 55 131 910
3 410 218 985
3 911 71 180
3 912 434 148
3 148 880 912
3 913 79 369
3 369 164 913
3 299 876 914
3 753 995 654
3 915 103 300
3 915 300 623
3 768 906 916
3 916 80 415
3 488 998 917
3 314 921 642
3 832 363 918
3 443 984 918
3 352 75 919
3 919 206 570
3 638 153 920
3 157 19 920
3 917 642 921
3 921 84 708
3 922 207 423
3 423 570 922
3 923 674 306
3 306 992 923
3 336 298 924
3 924 634 886
3 925 345 521
3 925 521 884
3 633 558 926
3 318 664 926
3 46 326 927
3 672 617 927
3 928 656 764
3 764 88 928
3 609 652 929
3 382 235 929
3 816 197 930
3 930 77 697
3 180 859 931
3 931 551 877
3 842 606 932
3 54 773 932
3 359 76 933
3 933 1 521
3 32 948 934
3 394 225 934
3 935 776 64
3 935 64 223
3 936 162 206
3 936 206 622
3 937 32 442
3 442 950 937
3 722 840 938
3 938 587 641
3 939 849 252
3 252 113 939
3 940 80 178
3 178 121 940
3 941 745 215
3 215 894 941
3 942 58 263
3 263 464 942
3 428 377 943
3 200 95 943
3 637 758 944
3 117 897 944
3 945 900 492
3 945 492 858
3 946 65 495
3 495 24 946
3 239 332 947
3 947 465 780
3 595 175 948
3 394 934 948
3 949 206 162
3 162 733 949
3 166 715 950
3 707 762 950
3 115 978 951
3 951 131 55
3 952 867 892
3 892 840 952
3 953 612 557
3 557 701 953
3 818 402 954
3 954 122 851
3 233 56 955
3 255 958 955
3 956 167 704
3 956 704 905
3 957 54 606
3 957 606 828
3 958 255 315
3 315 726 958
3 254 826 959
3 959 836 933
3 486 830 960
3 960 528 785
3 961 208 458
3 458 692 961
3 962 510 795
3 962 795 561
3 694 682 963
3 963 524 487
3 14 327 964
3 632 390 964
3 965 506 640
3 640 133 965
3 885 466 966
3 966 696 475
3 967 11 364
3 364 541 967
3 733 786 968
3 578 842 968
3 405 289 969
3 969 166 950
3 970 805 359
3 359 354 970
3 621 286 971
3 971 222 16
3 444 184 972
3 972 222 971
3 973 575 182
3 908 996 182
3 974 313 507
3 974 507 873
3 975 829 998
3 488 917 975
3 976 79 43
3 43 767 976
3 915 623 977
3 294 223 977
3 978 306 380
3 380 500 978
3 121 178 979
3 979 595 948
3 749 384 980
3 980 535 543
3 808 454 981
3 825 877 981
3 27 147 982
3 878 1002 982
3 308 793 983
3 983 321 737
3 443 642 984
3 984 482 434
3 911 410 985
3 985 312 699
3 373 989 986
3 273 634 986
3 987 812 508
3 508 44 987
3 988 529 291
3 291 516 988
3 989 74 337
3 337 886 989
3 990 226 639
3 639 594 990
3 62 782 991
3 991 547 634
3 992 527 711
3 711 301 992
3 373 986 993
3 993 57 782
3 8 362 994
3 994 166 424
3 914 654 995
3 912 880 995
3 228 973 996
3 908 275 996
3 997 253 21
3 997 21 670
3 984 642 998
3 488 975 998
3 999 747 165
3 165 419 999
3 807 662 1000
3 1000 631 716
3 1001 66 825
3 825 250 1001
3 458 449 1002
3 225 302 1002
3 296 748 1003
3 1003 253 477
